    
        hockey_boxscores  

## # A tibble: 3,936 x 6  
##    period game_id hometeam awayteam homegoals awaygoals  
##        <int>     <fct>    <fct>     <int>     <int>  
##  1      1   20001       VAN      EDM         2         2  
##  2      2   20001       VAN      EDM         0         1  
##  3      3   20001       VAN      EDM         0         0  
##  4      1   20002       CGY      WPG         2         1  
##  5      2   20002       CGY      WPG         3         4  
##  6      3   20002       CGY      WPG         0         0  
##  7      1   20003       MTL      SEA         2         2  
##  8      2   20003       MTL      SEA         0         1  
##  9      3   20003       MTL      SEA         1         1  
## 10      1   20004       VGK      TOR         1         1  
## # ... with 3,926 more rows  
…
